0
SECTION
2
HEADER
9
$INSUNITS
70
4
9
$ACADVER
1
AC1014
9
$HANDSEED
5
FFFF
0
ENDSEC
0
SECTION
2
TABLES
0
TABLE
2
VPORT
5
8
100
AcDbSymbolTable
0
ENDTAB
0
TABLE
2
LTYPE
5
5
100
AcDbSymbolTable
0
LTYPE
5
14
100
AcDbSymbolTableRecord
100
AcDbLinetypeTableRecord
2
BYBLOCK
70
0
0
LTYPE
5
15
100
AcDbSymbolTableRecord
100
AcDbLinetypeTableRecord
2
BYLAYER
70
0
0
ENDTAB
0
TABLE
2
LAYER
5
2
100
AcDbSymbolTable
70
2
0
LAYER
5
50
100
AcDbSymbolTableRecord
100
AcDbLayerTableRecord
2
0
70
0
6
CONTINUOUS
0
ENDTAB
0
TABLE
2
STYLE
5
3
100
AcDbSymbolTable
70
1
0
STYLE
5
11
100
AcDbSymbolTableRecord
100
AcDbTextStyleTableRecord
2
STANDARD
70
0
0
ENDTAB
0
TABLE
2
VIEW
5
6
100
AcDbSymbolTable
70
0
0
ENDTAB
0
TABLE
2
UCS
5
7
100
AcDbSymbolTable
70
0
0
ENDTAB
0
TABLE
2
APPID
5
9
100
AcDbSymbolTable
70
2
0
APPID
5
12
100
AcDbSymbolTableRecord
100
AcDbRegAppTableRecord
2
ACAD
70
0
0
ENDTAB
0
TABLE
2
DIMSTYLE
5
A
100
AcDbSymbolTable
70
1
0
ENDTAB
0
TABLE
2
BLOCK_RECORD
5
1
100
AcDbSymbolTable
70
1
0
BLOCK_RECORD
5
1F
100
AcDbSymbolTableRecord
100
AcDbBlockTableRecord
2
*MODEL_SPACE
0
BLOCK_RECORD
5
1B
100
AcDbSymbolTableRecord
100
AcDbBlockTableRecord
2
*PAPER_SPACE
0
ENDTAB
0
ENDSEC
0
SECTION
2
BLOCKS
0
BLOCK
5
20
100
AcDbEntity
100
AcDbBlockBegin
2
*MODEL_SPACE
0
ENDBLK
5
21
100
AcDbEntity
100
AcDbBlockEnd
0
BLOCK
5
1C
100
AcDbEntity
100
AcDbBlockBegin
2
*PAPER_SPACE
0
ENDBLK
5
1D
100
AcDbEntity
100
AcDbBlockEnd
0
ENDSEC
0
SECTION
2
ENTITIES
0
CIRCLE
5
100
100
AcDbEntity
8
0
100
AcDbCircle
10
11.072310975639809
20
-11.270674885343659
30
0
40
9.2499999999999982
210
-4.9303806576313238e-32
220
-0
230
1
0
LINE
5
101
100
AcDbEntity
8
0
100
AcDbLine
10
1.4988957827314675
20
-20.588343181551423
30
0
11
11.998895807362363
21
-24
31
0
0
LINE
5
102
100
AcDbEntity
8
0
100
AcDbLine
10
20.99889578273153
20
-24
30
0
11
20.99889578273153
21
-8.3999999999999986
31
0
0
LINE
5
103
100
AcDbEntity
8
0
100
AcDbLine
10
20.99889578273153
20
-8.3999999999999986
30
0
11
20.99889578273153
21
-1.5000000000000002
31
0
0
LINE
5
104
100
AcDbEntity
8
0
100
AcDbLine
10
20.99889578273153
20
-1.5000000000000002
30
0
11
11.12757543917346
21
-1.5000000000000002
31
0
0
LINE
5
105
100
AcDbEntity
8
0
100
AcDbLine
10
1.4988957827314664
20
-1.5000000000000002
30
0
11
1.4988957827314675
21
-8.4000000000000004
31
0
0
LINE
5
106
100
AcDbEntity
8
0
100
AcDbLine
10
1.4988957827314675
20
-8.4000000000000004
30
0
11
1.4988957827314675
21
-20.588343181551423
31
0
0
LINE
5
107
100
AcDbEntity
8
0
100
AcDbLine
10
1.4988957827314675
20
-8.4000000000000004
30
0
11
1.4988957827314675
21
-17.655513608748738
31
0
0
LINE
5
108
100
AcDbEntity
8
0
100
AcDbLine
10
11.12757543917346
20
-1.5000000000000002
30
0
11
1.4988957827314664
21
-1.5000000000000002
31
0
0
LINE
5
109
100
AcDbEntity
8
0
100
AcDbLine
10
11.998895807362363
20
-24
30
0
11
20.99889578273153
21
-24
31
0
0
LWPOLYLINE
5
110
100
AcDbEntity
8
0
100
AcDbPolyline
90
7
70
1
43
0.0
10
12.236472467849167
20
-22.5
10
1.9624212742938885
20
-19.161758407108692
10
1.4988957827314675
20
-19.011149845194023
10
1.4988957827314664
20
-20.588343181551423
10
11.998895807362363
20
-24
10
20.99889578273153
20
-24
10
20.99889578273153
20
-22.5
0
ENDSEC
0
SECTION
2
OBJECTS
0
DICTIONARY
5
C
100
AcDbDictionary
3
ACAD_GROUP
350
D
3
ACAD_MLINESTYLE
350
17
0
DICTIONARY
5
D
100
AcDbDictionary
0
DICTIONARY
5
1A
330
C
100
AcDbDictionary
0
DICTIONARY
5
17
100
AcDbDictionary
0
ENDSEC
0
EOF
