0
SECTION
2
HEADER
9
$INSUNITS
70
4
9
$ACADVER
1
AC1014
9
$HANDSEED
5
FFFF
0
ENDSEC
0
SECTION
2
TABLES
0
TABLE
2
VPORT
5
8
100
AcDbSymbolTable
0
ENDTAB
0
TABLE
2
LTYPE
5
5
100
AcDbSymbolTable
0
LTYPE
5
14
100
AcDbSymbolTableRecord
100
AcDbLinetypeTableRecord
2
BYBLOCK
70
0
0
LTYPE
5
15
100
AcDbSymbolTableRecord
100
AcDbLinetypeTableRecord
2
BYLAYER
70
0
0
ENDTAB
0
TABLE
2
LAYER
5
2
100
AcDbSymbolTable
70
2
0
LAYER
5
50
100
AcDbSymbolTableRecord
100
AcDbLayerTableRecord
2
0
70
0
6
CONTINUOUS
0
ENDTAB
0
TABLE
2
STYLE
5
3
100
AcDbSymbolTable
70
1
0
STYLE
5
11
100
AcDbSymbolTableRecord
100
AcDbTextStyleTableRecord
2
STANDARD
70
0
0
ENDTAB
0
TABLE
2
VIEW
5
6
100
AcDbSymbolTable
70
0
0
ENDTAB
0
TABLE
2
UCS
5
7
100
AcDbSymbolTable
70
0
0
ENDTAB
0
TABLE
2
APPID
5
9
100
AcDbSymbolTable
70
2
0
APPID
5
12
100
AcDbSymbolTableRecord
100
AcDbRegAppTableRecord
2
ACAD
70
0
0
ENDTAB
0
TABLE
2
DIMSTYLE
5
A
100
AcDbSymbolTable
70
1
0
ENDTAB
0
TABLE
2
BLOCK_RECORD
5
1
100
AcDbSymbolTable
70
1
0
BLOCK_RECORD
5
1F
100
AcDbSymbolTableRecord
100
AcDbBlockTableRecord
2
*MODEL_SPACE
0
BLOCK_RECORD
5
1B
100
AcDbSymbolTableRecord
100
AcDbBlockTableRecord
2
*PAPER_SPACE
0
ENDTAB
0
ENDSEC
0
SECTION
2
BLOCKS
0
BLOCK
5
20
100
AcDbEntity
100
AcDbBlockBegin
2
*MODEL_SPACE
0
ENDBLK
5
21
100
AcDbEntity
100
AcDbBlockEnd
0
BLOCK
5
1C
100
AcDbEntity
100
AcDbBlockBegin
2
*PAPER_SPACE
0
ENDBLK
5
1D
100
AcDbEntity
100
AcDbBlockEnd
0
ENDSEC
0
SECTION
2
ENTITIES
0
LWPOLYLINE
5
100
100
AcDbEntity
8
0
100
AcDbPolyline
90
4
70
1
43
0.0
10
39.17928083075406
20
13.573173518107717
10
90.580649652357721
20
13.573173518107717
10
90.580649652357721
20
19.263303096706256
10
39.17928083075406
20
19.263303096706256
0
LWPOLYLINE
5
101
100
AcDbEntity
8
0
100
AcDbPolyline
90
4
70
1
43
0.0
10
46.000000685453415
20
21.142317679596189
10
91.292556047364641
20
21.142317679596189
10
91.292556047364641
20
40.568701996707325
10
46.000000685453415
20
40.568701996707325
0
LINE
5
102
100
AcDbEntity
8
0
100
AcDbLine
10
98.000009093413141
20
70.29750379967733
30
-1.1102230246251565e-15
11
98.000009093413198
21
70.747503799675869
31
-3.5367465847737572e-18
0
CIRCLE
5
103
100
AcDbEntity
8
0
100
AcDbCircle
10
35.499999999999986
20
16.497503799677329
30
-1.1102230246251565e-15
40
2.5
210
0
220
0
230
1
0
LINE
5
104
100
AcDbEntity
8
0
100
AcDbLine
10
106.00727071362292
20
68.627695696185981
30
0
11
99.362195136828149
21
68.627695696185981
31
0
0
LINE
5
105
100
AcDbEntity
8
0
100
AcDbLine
10
99.362195136828149
20
68.627695696185981
30
0
11
98.994672043503158
21
68.259786446938023
31
-1.1102230246251565e-15
0
CIRCLE
5
106
100
AcDbEntity
8
0
100
AcDbCircle
10
93.499999999999957
20
65.497503799677347
30
0
40
1.0999999999999943
210
0
220
0
230
1
0
CIRCLE
5
107
100
AcDbEntity
8
0
100
AcDbCircle
10
93.499999999999957
20
65.497503799677347
30
0
40
2.5
210
0
220
0
230
1
0
CIRCLE
5
108
100
AcDbEntity
8
0
100
AcDbCircle
10
93.499999999999957
20
65.497503799677347
30
0
40
1.1000000000000001
210
0
220
0
230
1
0
CIRCLE
5
109
100
AcDbEntity
8
0
100
AcDbCircle
10
35.499999999999943
20
65.497503799677332
30
0
40
1.0999999999999988
210
0
220
0
230
1
0
CIRCLE
5
110
100
AcDbEntity
8
0
100
AcDbCircle
10
35.499999999999943
20
65.497503799677332
30
0
40
2.5
210
0
220
0
230
1
0
CIRCLE
5
111
100
AcDbEntity
8
0
100
AcDbCircle
10
35.499999999999943
20
65.497503799677332
30
0
40
1.1000000000000001
210
0
220
0
230
1
0
LINE
5
112
100
AcDbEntity
8
0
100
AcDbLine
10
119
20
3.4975037996773484
30
0
11
118.99999999999997
21
71.497503799677361
31
0
0
CIRCLE
5
113
100
AcDbEntity
8
0
100
AcDbCircle
10
35.499999999999986
20
16.497503799677329
30
-1.1102230246251565e-15
40
1.0999999999999992
210
0
220
0
230
1
0
LINE
5
114
100
AcDbEntity
8
0
100
AcDbLine
10
98.999999999999972
20
77.497503799677347
30
0
11
-1.000000000000032
21
77.497503799677332
31
0
0
SPLINE
5
115
100
AcDbEntity
8
0
100
AcDbSpline
70
4
71
5
72
26
73
20
74
0
42
0.000000001
43
0.0000000001
44
0.0000000001
40
0
40
0
40
0
40
0
40
0
40
0
40
0.066666666666666666
40
0.13333333333333333
40
0.20000000000000001
40
0.26666666666666666
40
0.33333333333333331
40
0.39999999999999997
40
0.46666666666666662
40
0.53333333333333333
40
0.59999999999999998
40
0.66666666666666663
40
0.73333333333333328
40
0.79999999999999993
40
0.86666666666666659
40
0.93333333333333324
40
1
40
1
40
1
40
1
40
1
40
1
41
1
41
1
41
1
41
1
41
1
41
1
41
1
41
1
41
1
41
1
41
1
41
1
41
1
41
1
41
1
41
1
41
1
41
1
41
1
41
1
10
98.999999999999972
20
77.497503799677276
30
0
10
99.32539350898432
20
77.502506761199015
30
0
10
99.974123356862265
20
77.506492300249761
30
0
10
100.94104657942759
20
77.494409744359203
30
0
10
102.21784509736528
20
77.441912875822837
30
0
10
103.79208423448028
20
77.314129688701939
30
0
10
105.34239537452115
20
77.12236742338537
30
0
10
106.86515708422644
20
76.865296636634952
30
0
10
108.35508177210953
20
76.542846103755664
30
0
10
109.80484118911214
20
76.157609291219458
30
0
10
111.20543493303863
20
75.714817343691422
30
0
10
112.54725731131275
20
75.220915471310718
30
0
10
113.82118243327119
20
74.682728113507508
30
0
10
115.01966214937923
20
74.106625540792123
30
0
10
116.1385217506886
20
73.497753089321193
30
0
10
117.17724108933294
20
72.859682045659355
30
0
10
117.94499230199335
20
72.327680861753066
30
0
10
118.48595315102463
20
71.917073116332602
30
0
10
118.83121424744783
20
71.638213738333121
30
0
10
118.99999999999994
20
71.497503799677389
30
0
0
LINE
5
116
100
AcDbEntity
8
0
100
AcDbLine
10
99.221776686194673
20
75.847503799677327
30
0
11
31.999999999999936
21
75.847503799677327
31
-1.1102230246251565e-15
0
LINE
5
117
100
AcDbEntity
8
0
100
AcDbLine
10
106.00727071362292
20
68.627695696185981
30
0
11
106.00727071362289
21
75.360554981639865
31
0
0
SPLINE
5
118
100
AcDbEntity
8
0
100
AcDbSpline
70
0
71
3
72
11
73
7
74
0
42
0.000000001
43
0.0000000001
44
0.0000000001
40
-0.00051966693776678025
40
-0.00051966693776678025
40
-0.00051966693776678025
40
-0.00051966693776678025
40
0
40
0
40
0
40
0.2985856696069763
40
0.2985856696069763
40
0.2985856696069763
40
0.2985856696069763
10
99.221776686192683
20
75.847503799677284
30
0
10
99.226004092404324
20
75.847568796519653
30
0
10
99.230231498614131
20
75.847633793362007
30
0
10
99.234458904824137
20
75.847698790204362
30
0
10
101.57276348114551
20
75.883650484071723
30
0
10
103.84608655567204
20
75.72237784734682
30
0
10
106.00727071362292
20
75.360554981639865
30
0
0
LINE
5
119
100
AcDbEntity
8
0
100
AcDbLine
10
31.999999999999936
20
75.847503799677327
30
-1.1102230246251565e-15
11
31.999999999999989
21
11.173329105624388
31
-1.1102230246251565e-15
0
LINE
5
120
100
AcDbEntity
8
0
100
AcDbLine
10
31.99999999999994
20
69.247503799677418
30
-1.1102230246251565e-15
11
98.000009093413141
21
69.247503799675869
31
-1.1102230246251565e-15
0
LINE
5
121
100
AcDbEntity
8
0
100
AcDbLine
10
31.999999999999989
20
11.173329105624388
30
-1.1102230246251565e-15
11
98.994672043503186
21
11.173329105624383
31
-1.1102230246251565e-15
0
LINE
5
122
100
AcDbEntity
8
0
100
AcDbLine
10
31.999999999999975
20
70.747503799677418
30
-1.1102230246251565e-15
11
98.000009093413183
21
70.747503799675869
31
-1.1102230246251565e-15
0
LINE
5
123
100
AcDbEntity
8
0
100
AcDbLine
10
94.268769194175491
20
67.876367798750579
30
0
11
94.268769194175491
21
69.247503799675954
31
0
0
LINE
5
124
100
AcDbEntity
8
0
100
AcDbLine
10
92.76858947782118
20
67.888118500553702
30
0
11
92.768589477821195
21
69.247503799675997
31
0
0
LINE
5
125
100
AcDbEntity
8
0
100
AcDbLine
10
36.252599927886486
20
67.881532605825697
30
0
11
36.252599927886521
21
69.247503799677318
31
0
0
LINE
5
126
100
AcDbEntity
8
0
100
AcDbLine
10
34.742201850788746
20
69.247503799677361
30
0
11
34.752097375664754
21
67.883010384139538
31
0
0
LINE
5
127
100
AcDbEntity
8
0
100
AcDbLine
10
98.994672043503158
20
68.259786446938023
30
-1.1102230246251565e-15
11
98.994672043503186
21
11.173329105624383
31
-1.1102230246251565e-15
0
CIRCLE
5
128
100
AcDbEntity
8
0
100
AcDbCircle
10
100.97612387198208
20
73.397503799677338
30
0
40
1.1499999999999999
210
0
220
0
230
1
0
LINE
5
129
100
AcDbEntity
8
0
100
AcDbLine
10
98.000009093413141
20
69.247503799675869
30
-1.1102230246251565e-15
11
98.000009093413141
21
70.29750379967733
31
-1.1102230246251565e-15
0
CIRCLE
5
130
100
AcDbEntity
8
0
100
AcDbCircle
10
93.500000012315382
20
16.497503799677339
30
0
40
2.5
210
0
220
0
230
1
0
CIRCLE
5
131
100
AcDbEntity
8
0
100
AcDbCircle
10
93.500000012315382
20
16.497503799677339
30
0
40
1.25
210
0
220
0
230
1
0
CIRCLE
5
132
100
AcDbEntity
8
0
100
AcDbCircle
10
93.500000012315382
20
16.497503799677339
30
0
40
1.25
210
0
220
0
230
1
0
CIRCLE
5
133
100
AcDbEntity
8
0
100
AcDbCircle
10
95.000000012315382
20
39.997503799677347
30
0
40
1.1499999999999999
210
0
220
0
230
1
0
CIRCLE
5
134
100
AcDbEntity
8
0
100
AcDbCircle
10
95.000000012315382
20
39.997503799677347
30
0
40
1.2500000000000047
210
0
220
0
230
1
0
CIRCLE
5
135
100
AcDbEntity
8
0
100
AcDbCircle
10
100.97612387198208
20
73.397503799677338
30
0
40
1.2499999999999991
210
0
220
0
230
1
0
ENDSEC
0
SECTION
2
OBJECTS
0
DICTIONARY
5
C
100
AcDbDictionary
3
ACAD_GROUP
350
D
3
ACAD_MLINESTYLE
350
17
0
DICTIONARY
5
D
100
AcDbDictionary
0
DICTIONARY
5
1A
330
C
100
AcDbDictionary
0
DICTIONARY
5
17
100
AcDbDictionary
0
ENDSEC
0
EOF
