0
SECTION
2
HEADER
9
$INSUNITS
70
4
9
$ACADVER
1
AC1014
9
$HANDSEED
5
FFFF
0
ENDSEC
0
SECTION
2
TABLES
0
TABLE
2
VPORT
5
8
100
AcDbSymbolTable
0
ENDTAB
0
TABLE
2
LTYPE
5
5
100
AcDbSymbolTable
0
LTYPE
5
14
100
AcDbSymbolTableRecord
100
AcDbLinetypeTableRecord
2
BYBLOCK
70
0
0
LTYPE
5
15
100
AcDbSymbolTableRecord
100
AcDbLinetypeTableRecord
2
BYLAYER
70
0
0
ENDTAB
0
TABLE
2
LAYER
5
2
100
AcDbSymbolTable
70
2
0
LAYER
5
50
100
AcDbSymbolTableRecord
100
AcDbLayerTableRecord
2
0
70
0
6
CONTINUOUS
0
ENDTAB
0
TABLE
2
STYLE
5
3
100
AcDbSymbolTable
70
1
0
STYLE
5
11
100
AcDbSymbolTableRecord
100
AcDbTextStyleTableRecord
2
STANDARD
70
0
0
ENDTAB
0
TABLE
2
VIEW
5
6
100
AcDbSymbolTable
70
0
0
ENDTAB
0
TABLE
2
UCS
5
7
100
AcDbSymbolTable
70
0
0
ENDTAB
0
TABLE
2
APPID
5
9
100
AcDbSymbolTable
70
2
0
APPID
5
12
100
AcDbSymbolTableRecord
100
AcDbRegAppTableRecord
2
ACAD
70
0
0
ENDTAB
0
TABLE
2
DIMSTYLE
5
A
100
AcDbSymbolTable
70
1
0
ENDTAB
0
TABLE
2
BLOCK_RECORD
5
1
100
AcDbSymbolTable
70
1
0
BLOCK_RECORD
5
1F
100
AcDbSymbolTableRecord
100
AcDbBlockTableRecord
2
*MODEL_SPACE
0
BLOCK_RECORD
5
1B
100
AcDbSymbolTableRecord
100
AcDbBlockTableRecord
2
*PAPER_SPACE
0
ENDTAB
0
ENDSEC
0
SECTION
2
BLOCKS
0
BLOCK
5
20
100
AcDbEntity
100
AcDbBlockBegin
2
*MODEL_SPACE
0
ENDBLK
5
21
100
AcDbEntity
100
AcDbBlockEnd
0
BLOCK
5
1C
100
AcDbEntity
100
AcDbBlockBegin
2
*PAPER_SPACE
0
ENDBLK
5
1D
100
AcDbEntity
100
AcDbBlockEnd
0
ENDSEC
0
SECTION
2
ENTITIES
0
LWPOLYLINE
5
100
100
AcDbEntity
8
0
100
AcDbPolyline
90
4
70
1
43
0.0
10
52.99889578273168
20
-8.4050000000000189
10
118.99890487614488
20
-8.4050000000000011
10
118.99890487614488
20
-20
10
52.99889578273168
20
-20.000000000000018
0
LWPOLYLINE
5
101
100
AcDbEntity
8
0
100
AcDbPolyline
90
8
70
1
43
0.0
10
67.868895782731698
20
-16.890000000000011
10
61.528895782731709
20
-16.890000000000004
42
-0.41421356237309503
10
60.228895782731712
20
-15.590000000000007
10
60.228895782731712
20
-15.030000000000005
42
-0.41421356237309703
10
61.528895782731716
20
-13.730000000000004
10
67.868895782731698
20
-13.730000000000009
42
-0.41421356237309609
10
69.16889578273171
20
-15.030000000000012
10
69.16889578273171
20
-15.590000000000011
42
-0.41421356237309703
0
LWPOLYLINE
5
102
100
AcDbEntity
8
0
100
AcDbPolyline
90
8
70
1
43
0.0
10
68.868895782731713
20
-15.590000000000011
42
-0.41421356237309503
10
67.868895782731713
20
-16.590000000000011
10
61.528895782731716
20
-16.590000000000003
42
-0.41421356237309764
10
60.528895782731709
20
-15.590000000000007
10
60.528895782731702
20
-15.030000000000005
42
-0.41421356237309503
10
61.528895782731709
20
-14.030000000000005
10
67.868895782731698
20
-14.030000000000012
42
-0.41421356237309825
10
68.868895782731713
20
-15.03000000000001
0
LWPOLYLINE
5
103
100
AcDbEntity
8
0
100
AcDbPolyline
90
28
70
1
43
0.0
10
77.343383554493698
20
-16.740000000007996
10
79.338895674112692
20
-16.740000000000919
10
79.338895674112692
20
-16.890000000000001
10
77.343383554493698
20
-16.8900000000002
42
-0.20585046722614767
10
77.016816313746702
20
-16.74960270875928
10
76.372328541984828
20
-16.069800538543074
42
-0.19199264007248165
10
76.248895782731694
20
-15.760197829783959
10
76.248895782734706
20
-14.439999999995958
42
-0.41421356236951806
10
76.698895782726197
20
-13.989999999998957
10
82.298895782731705
20
-13.989999999997965
42
-0.41421356237471946
10
82.748895782731694
20
-14.44000000000046
10
82.748895782731751
20
-15.760197829783959
42
-0.19199264007252517
10
82.625463023478545
20
-16.06980053854317
10
81.980975251716529
20
-16.749602708759127
42
-0.20585046722614317
10
81.654408010969703
20
-16.889999999999972
10
79.658895674127706
20
-16.889999999999958
10
79.658895674127706
20
-16.73999999999846
10
81.654408010969703
20
-16.739999999996765
42
0.20585046723085104
10
81.872119504794099
20
-16.646401805825469
10
82.516607276610443
20
-15.966599635629031
42
0.1919926400477876
10
82.59889578278748
20
-15.760197829783959
10
82.598895782736065
20
-14.439999999999957
42
0.41421356237504181
10
82.298895782731705
20
-14.140000000010948
10
76.698895782731697
20
-14.139999999998231
42
0.41421356237309725
10
76.398895782716764
20
-14.439999999995958
10
76.39889578267713
20
-15.760197829783959
42
0.19199264007353287
10
76.481184288890177
20
-15.966599635634797
10
77.125672060637328
20
-16.646401805868653
42
0.2058504672227329
0
LWPOLYLINE
5
104
100
AcDbEntity
8
0
100
AcDbPolyline
90
28
70
1
43
0.0
10
90.843383554493698
20
-16.740000000007996
10
92.838895674112706
20
-16.740000000000915
10
92.838895674112706
20
-16.889999999999997
10
90.843383554493698
20
-16.8900000000002
42
-0.20585046722614767
10
90.516816313746702
20
-16.749602708759276
10
89.872328541984842
20
-16.069800538543074
42
-0.19199264007248787
10
89.748895782731708
20
-15.760197829783957
10
89.748895782734735
20
-14.439999999995957
42
-0.41421356236949641
10
90.198895782726197
20
-13.989999999998954
10
95.798895782731691
20
-13.989999999997938
42
-0.41421356237470069
10
96.248895782731708
20
-14.440000000000456
10
96.248895782731765
20
-15.760197829783957
42
-0.19199264007252528
10
96.125463023478545
20
-16.069800538543166
10
95.480975251716529
20
-16.749602708759127
42
-0.20585046722614225
10
95.154408010969703
20
-16.889999999999969
10
93.158895674127692
20
-16.889999999999954
10
93.158895674127692
20
-16.73999999999846
10
95.154408010969703
20
-16.739999999996765
42
0.2058504672308617
10
95.372119504794114
20
-16.646401805825466
10
96.016607276610443
20
-15.966599635629029
42
0.19199264004778951
10
96.098895782787508
20
-15.760197829783955
10
96.098895782736065
20
-14.439999999999957
42
0.4142135623749984
10
95.798895782731705
20
-14.140000000010943
10
90.198895782731711
20
-14.13999999999823
42
0.41421356237307339
10
89.898895782716778
20
-14.439999999995957
10
89.898895782677144
20
-15.760197829783957
42
0.19199264007352759
10
89.981184288890162
20
-15.966599635634795
10
90.625672060637342
20
-16.646401805868656
42
0.20585046722272479
0
ARC
5
105
100
AcDbEntity
8
0
100
AcDbCircle
10
107.49889578273172
20
-13.890000000000002
30
0
40
3.0000000000000027
210
-3.1554436208840472e-30
220
1.122782826382851e-32
230
1
100
AcDbArc
50
-90
51
90.000000000001904
0
ARC
5
106
100
AcDbEntity
8
0
100
AcDbCircle
10
107.49889578273172
20
-13.890000000000002
30
0
40
3.0000000000000027
210
3.1554436208840469e-30
220
1.1227828264043922e-32
230
1
100
AcDbArc
50
90.000000000001904
51
270
0
CIRCLE
5
107
100
AcDbEntity
8
0
100
AcDbCircle
10
107.49889578273172
20
-13.890000000000002
30
0
40
3.0000000000000031
210
-9.3670908882822582e-50
220
8.4371254068027093e-34
230
1
0
ARC
5
108
100
AcDbEntity
8
0
100
AcDbCircle
10
107.49889578273172
20
-13.890000000000002
30
0
40
3.2500000000000018
210
0
220
1.1227828264043929e-32
230
1
100
AcDbArc
50
90
51
270.00000000000199
0
ARC
5
109
100
AcDbEntity
8
0
100
AcDbCircle
10
107.49889578273172
20
-13.890000000000002
30
0
40
3.2500000000000018
210
-3.6820854513715111e-46
220
1.1227828263940619e-32
230
1
100
AcDbArc
50
-89.99999999999801
51
90
0
LWPOLYLINE
5
110
100
AcDbEntity
8
0
100
AcDbPolyline
90
14
70
1
43
0.0
10
95.154408010969703
20
-17.139999999999969
10
93.158895674127692
20
-17.139999999999954
10
92.838895674112706
20
-17.139999999999997
10
90.843383554493698
20
-17.140000000000196
42
-0.20585046722613656
10
90.335390068887378
20
-16.921604213625493
10
89.69090229712549
20
-16.241802043409258
42
-0.19199264007249017
10
89.498895782731708
20
-15.760197829783957
10
89.498895782734721
20
-14.439999999995955
42
-0.41421356237078816
10
90.198895782726225
20
-13.739999999998956
10
95.798895782731705
20
-13.739999999997934
42
-0.41421356237412166
10
96.498895782731722
20
-14.440000000000461
10
96.498895782731765
20
-15.760197829783959
42
-0.19199264007256223
10
96.306889268337827
20
-16.241802043409443
10
95.662401496575868
20
-16.921604213625333
42
-0.20585046722613831
0
LWPOLYLINE
5
111
100
AcDbEntity
8
0
100
AcDbPolyline
90
14
70
1
43
0.0
10
81.654408010969703
20
-17.139999999999972
10
79.658895674127706
20
-17.139999999999954
10
79.338895674112692
20
-17.140000000000001
10
77.343383554493698
20
-17.140000000000196
42
-0.20585046722613598
10
76.835390068887378
20
-16.9216042136255
10
76.190902297125461
20
-16.241802043409248
42
-0.19199264007248187
10
75.998895782731694
20
-15.760197829783955
10
75.998895782734706
20
-14.43999999999596
42
-0.41421356237080398
10
76.698895782726225
20
-13.739999999998957
10
82.298895782731705
20
-13.739999999997961
42
-0.41421356237413931
10
82.998895782731694
20
-14.44000000000046
10
82.998895782731736
20
-15.760197829783962
42
-0.19199264007256167
10
82.806889268337812
20
-16.241802043409443
10
82.162401496575868
20
-16.921604213625336
42
-0.20585046722613831
0
LWPOLYLINE
5
112
100
AcDbEntity
8
0
100
AcDbPolyline
90
8
70
1
43
0.0
10
69.41889578273171
20
-15.590000000000011
42
-0.4142135623730967
10
67.868895782731698
20
-17.140000000000011
10
61.528895782731709
20
-17.140000000000008
42
-0.41421356237309503
10
59.978895782731705
20
-15.590000000000007
10
59.978895782731705
20
-15.030000000000005
42
-0.4142135623730967
10
61.528895782731716
20
-13.480000000000006
10
67.868895782731684
20
-13.480000000000006
42
-0.41421356237309925
10
69.41889578273171
20
-15.030000000000012
0
ENDSEC
0
SECTION
2
OBJECTS
0
DICTIONARY
5
C
100
AcDbDictionary
3
ACAD_GROUP
350
D
3
ACAD_MLINESTYLE
350
17
0
DICTIONARY
5
D
100
AcDbDictionary
0
DICTIONARY
5
1A
330
C
100
AcDbDictionary
0
DICTIONARY
5
17
100
AcDbDictionary
0
ENDSEC
0
EOF
